40
100.0     0.0      0.0 
100.0     0.0      0.0 
100.0     0.0      0.0 
102.01     0.0      0.0 
0.0       90.0     45.0
0.0       90.0     45.0
0.0       90.0     45.0
0.0       90.0     45.0
0.0       190.0     22.5
100.0     0.0      0.0 
102.01     0.0      0.0 
0.0       190.0     -22.5
100.0     0.0      0.0 
100.0     0.0      0.0 
0.0       90.0     -45.0
0.0       90.0     -45.0
0.0       90.0     -45.0
0.0       90.0     -45.0
102.1     0.0      0.0 
0.0       90.0     45.0
0.0       90.0     45.0
0.0       90.0     45.0
0.0       90.0     45.0
0.0       190.0     22.5
0.0       190.0     -22.5
100.0     0.0      0.0 
0.0       90.0     45.0
0.0       90.0     45.0
62.0      0.0      0.0 
0.0       110.0     -45.0
0.0       110.0     -45.0
0.0       90.0     45.0
0.0       90.0     45.0
0.0       90.0     45.0
0.0       90.0     45.0
100.0     0.0      0.0 
100.0     0.0      0.0 
100.0     0.0      0.0 
100.0     0.0      0.0 
90.0      0.0      0.0 